<svg width="21" height="12" viewBox="0 0 21 12" fill="none" xmlns="http://www.w3.org/2000/svg">
<path d="M1.5 11C11.5825 11 10.8294 1.43607 20 1.5" stroke="#023470" stroke-width="2" stroke-linecap="round" stroke-linejoin="round"/>
</svg>
