<svg width="10" height="10" viewBox="0 0 10 10" fill="none" xmlns="http://www.w3.org/2000/svg">
<path d="M0.59668 8.53125C0.397461 8.73047 0.391602 9.07031 0.59668 9.26953C0.801758 9.46875 1.1416 9.46875 1.34082 9.26953L5.09082 5.51953L8.84082 9.26953C9.04004 9.46875 9.38574 9.47461 9.58496 9.26953C9.78418 9.06445 9.78418 8.73047 9.58496 8.53125L5.83496 4.77539L9.58496 1.02539C9.78418 0.826172 9.79004 0.486328 9.58496 0.287109C9.37988 0.0820312 9.04004 0.0820312 8.84082 0.287109L5.09082 4.03711L1.34082 0.287109C1.1416 0.0820312 0.795898 0.0761719 0.59668 0.287109C0.397461 0.492188 0.397461 0.826172 0.59668 1.02539L4.34668 4.77539L0.59668 8.53125Z" fill="#023470"/>
</svg>
